[
    "002079e19fda2909beb37f886e7ad21c.jpg",
    "00ac6ee49486541621c0cb90a453f7ea.jpg",
    "00bd28d3ceca27ff6358a09b36315830.jpg",
    "01b00d3bfc321669983ca24b7489de9a.jpg",
    "01e803258c7a15a8ed51008a3c1ab647.jpg",
    "023251f7769bf2fa1f8c27fe3d245d80.jpg",
    "0296529e8a5bea54a526a057da272d34.jpg",
    "032278efcf42ecdd06392a1bc8f5b84a.jpg",
    "039472dc9dbbc8ed51c2c77beca18773.jpg",
    "03ae84fdf9de1b3e4a0970b00b44b26b.jpg",
    "03f5383cac0abd9b06666d47ef1a9013.jpg",
    "044cd5712862e220f8506e215e32f1df.jpg",
    "04ce606654f71a8bc9d39243fa1dc665.jpg",
    "04ed691cd221c44c48a5a214721ca430.jpg",
    "05941a5fb27761fc1a6c791ab27bb7e6.jpg",
    "059f538847913603b5b591d2e6005568.jpg",
    "0630f24f50159f01c80ccd26cff2987f.jpg",
    "07ac6487806d1a5db09444263340b0c1.jpg",
    "07c091dfbc92e3ce8277973d3424cf31.jpg",
    "07f9709c332125433fd7c88f054dcb2d.jpg",
    "08a6c650e45bdb59588bc9f345452b3f.jpg",
    "08b614b31a8bd07a7ba53eb232a67982.jpg",
    "08c78b5b867c79a7ebf683fcd85c34b0.jpg",
    "09ef7a4994ee476382c21a172cd20788.jpg",
    "0acd8110abc0c6f5327f5c1b8ba63afa.jpg",
    "0af2f46f97695105b1306c7b3b4410d9.jpg",
    "0b5d201a68606b5bef8fc62e6b75c61a.jpg",
    "0b872f53965632923d98aa6353b434dc.jpg",
    "0ba98dfc0e0930dfa3b07b3e63a23f3b.jpg",
    "0bccc3d30dc780fc9bcd09c3c3d3a7f9.jpg",
    "0cdf05a074e0599ddcd28076bbc8508f.jpg",
    "0de54782583508f09672277a15304cb2.jpg",
    "0ecd421fcf8cfcd8c4bca704986f92f0.jpg",
    "0efb08485266f15698d111967bd849c5.jpg",
    "0f4abaffc133b4a912f66c956167d862.jpg",
    "0fc90d42d1d9d962adbaeb5725281ed8.jpg",
    "1128d54fc75fa4b7189625241e1564cd.jpg",
    "12805af505020a4f8291b46085c8dd00.png",
    "12c1c27dc94af61a93cfe147751455b0.jpg",
    "1308b0d234266ae829b8b1b53fa0f479.jpg",
    "142fb2e519aaf3e3525f029755c50e56.jpg",
    "15433c670ff7180a20b5801e93d9140b.jpg",
    "157107e756ddfbb24ae4e2f6fa992993.jpg",
    "162ed4abf6d27fd7bdb55c125de0ffe0.jpg",
    "168e87d54712f2288b916c74ed1fc85b.jpg",
    "169da5f48c44ab6efd86414530f8baae.jpg",
    "16b1c031a9ae60e04610a594cf65d5a8.jpg",
    "1734cdd931bf526a58dfc794b4ea7286.jpg",
    "1766b6c6363b503f5488085ce7b3a5df.jpg",
    "17c4b84e8b789b071a3ba238ab1987f0.jpg",
    "17da6efdb5c2a0fca58c53841702fd06.jpg",
    "1820d2b0421d7de81541a947d21aa594.jpg",
    "1848d6703796e1ff17e6af802ef0114b.jpg",
    "18e60e3fea0fdc2d999d55d652d639ff.jpg",
    "1935b0021d9719e573affa69ef462d92.jpg",
    "1a22cdb4c9265a76adac9d32b1e1cc82.jpg",
    "1a99178b837a4bfca80796173964f03e.jpg",
    "1ac4a5dc9356a9d5448085ec577115d8.jpg",
    "1aeee64ff11cfb3bd103ae78f3be7fb9.jpg",
    "1b1094b04f27c13f08220ba5f80675a4.jpg",
    "1b337a8b9a1535e8600b571aac7dff38.jpg",
    "1baabe37d9f8f74e27d6e9870206f758.jpg",
    "1bc6887f1806da6b8659cc397b8febd6.jpg",
    "1c127b3f29a9be6adc75fed860e70c3d.jpg",
    "1cc66a2ee6289bc6d962c0e73c9c73f9.jpg",
    "1d5ee3dc032f8427ea4db5c4a1ad0951.jpg",
    "1ec320db67539a5d8f710106d467f08d.jpg",
    "1f746a05ce77f38a1822d302f9c61695.jpg",
    "20bf28379de0122680a227866e3a96cb.jpg",
    "20c4f187e381469093fbc728728b61c8.jpg",
    "20ce9cfca4c0cab55122884d72821e2b.jpg",
    "20dc1246f5760af302a3967412d66048.jpg",
    "21dbcd1972d517b91247c68e55fa324b.jpg",
    "22047a9675cf0a587fca666f8cb3c53a.jpg",
    "22266b2a2df4777c385311f1b11e3218.jpg",
    "22c9287fa6808292dbb9cbd151da9efe.jpg",
    "22ec87a7b28affb5b31f93c1a74e96f7.jpg",
    "2382dcd6f297820a22ba994952971e25.jpg",
    "23cb6c8d1203822ef465a7a954b54a0f.jpg",
    "24be73fc36132ebffc0ef9ddf81a3fbb.jpg",
    "24cca8d6a304b45584d6ccc0f35ad4c6.jpg",
    "250bd1318b14a144f695fc4d37f3c50a.jpg",
    "2543000cf5bd07f85fbdc6fbb0d1dfb9.jpg",
    "2641ed3027cc9e311a9f79c2259532bc.jpg",
    "268fe2402c470dbf2fa1540c7d5b8b47.jpg",
    "288cdcd12e03a843ca8c33803ed1fc54.jpg",
    "28acbf4d17a8d821e199f41750405378.jpg",
    "2a427446825499dbebc0253770a32d69.jpg",
    "2ae1f3c5adbf92ba0f01a58062877c36.jpg",
    "2b3175fb6577b6e1679a50e928ec87c7.jpg",
    "2bf5798260dda785ce5b27fcafb0aae9.jpg",
    "2d1426d4fbf626dd89e127d5cc6fc429.jpg",
    "2df51e2c80bbcf3417ffcaf73af977ce.jpg",
    "2e5d871bc63d9e423a2332ce178e9e76.jpg",
    "2e6222b1a54309fce41fd722359c7500.jpg",
    "2f98b18b4d454c8eb53b0090b0065db9.jpg",
    "3043a5b2d8808c38244b22395f36c93a.jpg",
    "3052042f101548cf7dd73aed8685a15a.jpg",
    "30a675ddaf64811c6e0a8a70ea6e4a4e.jpg",
    "30c8b422dc6f98d83b9306059ea076d9.jpg",
    "31077d907463a18ec396a41bad465d74.jpg",
    "31b00574df0b5978e6aa5f20f8f78ec5.jpg",
    "31cf67cb6c4af754dacabc68594e9811.jpg",
    "32090ae02b65f84008ac6ed0bbcd162d.jpg",
    "3251997cfbe1b3a839928652ba98bd0f.jpg",
    "32558412f39d0a5965fc0233f9bb9d22.jpg",
    "36ba5fc9e9c17affe71ac130449b35a7.jpg",
    "3731ebb04ac00c063a4ba9256c83f127.jpg",
    "37e1e9e021ac41f2352e2c1f80838989.jpg",
    "38175f0227002eee49a19f3e00e08db3.jpg",
    "386bf34f1c3f2560e88caa7578dccd19.jpg",
    "38afb84837fa05d75ecc42ec89f8cfc7.jpg",
    "39cb794d8da380cb4cd57d762f92c63e.jpg",
    "3a2f4593889287bbe5025320ccbb44d3.jpg",
    "3a5f77e7b53e56b62d6b09e539eec079.jpg",
    "3b1963445e2b30676b476ae22d1e72b6.jpg",
    "3cbe13fa0492d01dd1c083f19bc0bc02.jpg",
    "3d1457f84fe4f9b3f5a8c004baadbfcf.jpg",
    "3d65fda2afa7ac2ea64d58dc251f85a1.jpg",
    "3d697b9a0b4ac14806f7e1a5310fdfd0.jpg",
    "3dcc1f066b1c7bd79f83337be70381d9.jpg",
    "3df595683b29e2149d843e40eb24cf2c.jpg",
    "3e6550a2941b516a6666733577fcfecc.jpg",
    "3eaf24a22b617c759fcc2269878054e0.jpg",
    "3ee15bddd1a35f8d6e3893231dcab07b.jpg",
    "3f9045c89c0bc3e1b4e50caef2e89fd8.jpg",
    "405491ce5154c8448ca0e306a5d325b6.jpg",
    "40eb620d9ffe85d1ab51fe01e0bba447.jpg",
    "4144211487dbb9dacca31969ca194baf.jpg",
    "41f18110f367373544d9e1b618c34a29.jpg",
    "4286b2cef4c0e86b30073605da0a9c46.jpg",
    "42b342f8ef4d094dc408fb05d1bbbf4d.jpg",
    "42c45a44df4f30795f6a138eb4a1ac32.jpg",
    "4372adde586c53df83647ccec8082b66.jpg",
    "4386ebc38ba59d86114b2389f11262f3.jpg",
    "43b23c86ba02409527317061833b68ea.jpg",
    "44cc6e73364f99ee791d27cbca0caa4a.jpg",
    "44d396a3c9ad03aeeb80c77359636d71.jpg",
    "45829a216c68de1b5f3b8d7aedb78c18.jpg",
    "45c4de3fb5e3a65580c1b732eb2e6670.jpg",
    "464291bacc27399ce6d6e8879e5a4ece.jpg",
    "46bc939184d621a3f5111316ae2c6191.jpg",
    "46e7a163ef039522e5dae47bf6e0f107.jpg",
    "472356924e4dcafb2947b11d4c3c6ad9.jpg",
    "4736bad32e7cffe673c3c57838a9f792.jpg",
    "473786d9c46671f9e101c5ca221a3387.jpg",
    "475e19547ae6a67172a4a147216cea52.jpg",
    "4765c906bd6d9e415543b0e65332f3c2.jpg",
    "476c15bdbe9ef434c80a294fff0a1c0b.jpg",
    "49bff9359b739af83a5cfa931a8fc766.jpg",
    "49d9d1ac5340ab928fb49a0dc2fd60a7.jpg",
    "4ac4fe6419f08e5b8c79679ddc6eb87e.jpg",
    "4ad4797333151522d0a7cc571a4ccfaf.jpg",
    "4b050a27e4fdffe556b6260741118638.jpg",
    "4b3e47420b443cbf8fb769b56786bcc2.jpg",
    "4c5696883c2e2c90e9f9ab68b5a75fd9.jpg",
    "4c8322d32834acdc3c843ebbd47ff5b1.jpg",
    "4cd92429be52662427f0141f0906f8b1.jpg",
    "4dfd6e6c62a10217ddc8a6ce91104827.jpg",
    "4e33f2a91d93da72c3c83ab290c314be.jpg",
    "4e80b61640c83367b833839a707e8de1.jpg",
    "4ecfc8c90514f366d1b83c4811ed105f.jpg",
    "4ee0c0b400387c322e237f26d8d234b9.jpg",
    "4ef6a9beb7e929b4017825893837da73.jpg",
    "4f3925cbe8d9cf4ad8c0b62ec37a47ea.jpg",
    "4f5396fb4b8593fb0518df3304c17b5c.jpg",
    "4f6c0332130f06734345cf1c0589807f.jpg",
    "514a99aac96d39ebe40f93d41677fc4e.jpg",
    "5222e309110101990e1da9e68fac3eac.jpg",
    "52cd2aa0a77b6fb2958cf272ead0f194.jpg",
    "5304386267405e899eee6df072ae11c1.jpg",
    "538af8a2889fbd04a03adeb43b261a77.jpg",
    "53e70414fd117f630e2c5b5494f4634b.jpg",
    "53efe3c7b045b90cd42e0d9a053db85b.jpg",
    "54c7d4d95774c9d8fa1c56739dbe55d2.jpg",
    "54cca19ab8d629e73808b854a3f99405.jpg",
    "56b208efa3affae1a62ec9e55162d59b.jpg",
    "56e6161cd151f75bbfe134faea46a1be.jpg",
    "56fe775f8a82a0b29000af2719304c0a.jpg",
    "57a792f22dc30eb6635217cf0330a11f.jpg",
    "58d234f7fc0898694441c893d10cf0cb.jpg",
    "5901b4abfb0f66fdcd00cdd84c71b87b.jpg",
    "596d3fbf3a498aa0dd2f1738f20644be.jpg",
    "59db0068e7d39692e9e6410cf4fefdf6.jpg",
    "59f62811d8d0565a0efed0a4cec03f1d.jpg",
    "5a1cc01d6d16625525c8cc06f20ec74f.jpg",
    "5a1d0b674935f8f876b650bc3c0d5c6e.jpg",
    "5a2abdc55b266498ebe10f7067d5dd38.jpg",
    "5abb97216fe1017b92aaa265ffdcbadc.jpg",
    "5b16bbe3509b64b32c6a831838fd66e3.jpg",
    "5b348d063b8ef9cc2c7680be329584bd.jpg",
    "5b6261572c2dd81291bc0973850539e9.jpg",
    "5b9601255b260a7ca2734d64bc5c02b2.jpg",
    "5b9cd15f0652851365b1993f961dccac.jpg",
    "5ccd86ba6eebdeedf8463d756d4cc0e4.jpg",
    "5ceabfe2d27d929666eb873719b5b8a3.jpg",
    "5dbb6780d113fac28c9eba4a15ad8d30.jpg",
    "5df5933467a8722700240cfccdb00af3.jpg",
    "5e09252a35b48aa54ea38be6129ab361.jpg",
    "5e828c463bc8bb0e1234330ba7f208cc.jpg",
    "5f8b1d2c4fb87b69a0a2091846d84fe1.jpg",
    "601da9fb7381681c2d56f71f5d3a9963.jpg",
    "601e4c7743464d28cad5fae2828d75c1.jpg",
    "605944939d108de78e000d0c87be81b6.jpg",
    "609ee3cfe4840f7136ccae05fe9d0fab.jpg",
    "60a2703fe1672a07eccdb1f8fc8a441b.jpg",
    "60cdac9f6604d6667ff4bca2dd031e75.jpg",
    "613bf0e4562ac1d0319e85bb27119f5d.jpg",
    "618a756e1f140686fcb305af74c26803.jpg",
    "61c789a07f6ee06590a06127b0e41427.jpg",
    "61f4b37a539cf1fe180550915772321b.jpg",
    "620b2ad09b0e501d33de7a27bb71fe67.jpg",
    "62a5ecd428e456b34f88bb1bce988e2f.jpg",
    "6342336eeed3f0c4cd7d97993d151965.jpg",
    "64606669815befdfa77a2079e548965e.jpg",
    "651cd84c2997bacdd79b6f2d2af5f938.jpg",
    "65af760a27b9c6be98ca7a591cbcc95c.jpg",
    "65c94d4417bc5675d860c8e46b805a9c.jpg",
    "65e06dee26cd864d64b838f501e25818.jpg",
    "66a123ec474f85b7b8dd9d3265423b40.jpg",
    "68c4f5543e49c1a89fd96f0088230260.jpg",
    "68f8b243f46182b18473435222da1521.jpg",
    "6a314c34c52bab0a0c92a45883114048.jpg",
    "6a4d179ca3e060ea83e711c1e9bc2b7e.jpg",
    "6bc3ad8bf8d282f8758763abb1a72bd0.jpg",
    "6c61beadfccb3a89a54be0289b0d5628.jpg",
    "6c684958d395fe13c1ca15f844988f6e.jpg",
    "6d20a826c9e6032f4c7460ed7e4fd363.jpg",
    "6e7406b119482ed7f5549912c529f365.jpg",
    "6f2d919ca06ab7b5c6d10b7b31c106fe.jpg",
    "6f815e7f28590617c62038f2a5292dd8.jpg",
    "6fa7b6c0614ac8e8e09ee9f6a369fe20.jpg",
    "6fd95bd2564a88e82626b5063b7ee021.jpg",
    "7024c8eb2f705f8695548559e67be9f5.jpg",
    "7073f1514a73cc81e6852466424a2167.jpg",
    "70c832ba2117bc97065b7c77661f0620.jpg",
    "7272de1cf7068ff2d7ee2e51dd56668a.jpg",
    "732998a5b27ae2002e1371c6dabaec05.jpg",
    "73c757d8e65ab4940afac6685f11dc37.jpg",
    "74be22c8aefb97c74d335ab55e9452b0.jpg",
    "752261ca97961426052747483fc1f7eb.jpg",
    "753e1a536d2dd843809efa8255d526fb.jpg",
    "75df7f199600ce2a972e9596001f1e6b.jpg",
    "75f82fb2149ff4e7045cc590f8d0acc4.jpg",
    "760e115a4617400f3bec9b5d36324691.jpg",
    "765946e5847c0aeb84002e6001e2dac6.jpg",
    "76d7e7a39bd7d69910dd2fe98a958e76.jpg",
    "7a759c771a683a861d7e9f3ec229e225.jpg",
    "7a958df2de5e2ab11a4ad296fb98da87.jpg",
    "7af94c6f9727380fad3b4cab8f640e42.jpg",
    "7c3c9a4b580d4104c1e3cb453471c04e.jpg",
    "7c6bbff189ffaca8f8862c5aba28a884.jpg",
    "7e151d8c3f415700b3a1f2e7662d8265.jpg",
    "7e1bb7861bf4ce596ceea107ef8f121c.jpg",
    "7efc236d79e1b9e39bfcbc7cbee54c42.jpg",
    "7f06fb111a8d09fc84497d5e18e363f5.jpg",
    "7f7fda026a8e7e4dcc8d6055470bf67d.jpg",
    "7fd0fe05ecaf9325ce49d7eb76a25245.jpg",
    "7fd968a540370138d7c9480b3484bf67.jpg",
    "807d929e583b3e2b4d48579ab67abd77.jpg",
    "811097233c4316585f968c03020f1fbc.jpg",
    "81ab498ac8d145a667507a043260697e.jpg",
    "81ad22dd3d63da0e128c3d586fcb7ddf.jpg",
    "82940497690d2600641f71ec323bff67.jpg",
    "82ddce2594b4b0e050033885c257c44a.jpg",
    "838d3e751e37697be558abfad2a0472f.jpg",
    "83e3a49b54dc466b883cc1f6ae2a2f9b.jpg",
    "86899d6745e38cedd9c6482b60551b2a.jpg",
    "875a5a0ca83c06222caa572610aaf6ff.jpg",
    "881b2a85744d3d4a8b678aa1e227cabc.jpg",
    "885ebdc02f9f93102b0c4736f307416c.jpg",
    "88b2e9de2fb61e13fe0a1e6d0ca32c9e.jpg",
    "8924fca5e46000afe25a4eaa7fd681de.jpg",
    "89f773c3dfdfdec6f050f8e0fdf8e44d.jpg",
    "8ab2ae37bae9d0b5acd4932fc3b86d9e.jpg",
    "8aedf63d6ed9b87f174d4665eb503e59.jpg",
    "8b8df97145a9cf9198c704d8ed4d55f3.jpg",
    "8c9910c0148c47f43100b829da489e63.jpg",
    "8d860556587c04b74655182ef0bf83dc.jpg",
    "8db2aa87e3424d21db22d7b2cec24046.jpg",
    "8e01dfe1b7f194167bf0144b790574c5.jpg",
    "8e5699058d49ab7e70a88a3ea0c6f378.jpg",
    "8ef172aaaa7471b10550453fc760c962.jpg",
    "8f9e2763651c929ea7f44a6b9ec78485.jpg",
    "8ffc04815a9b6e499d4defdaeaf74feb.jpg",
    "905f53e59083301329d1ae75b4bb782c.jpg",
    "90d675b14598c7d0517e3155bced6261.png",
    "91ac72bcc7f66890c50c9b451818f29d.jpg",
    "924718a973b1cecd7c9a647c43f03ed7.jpg",
    "924c3e89a1fd82eec6aa6ec675cf57ed.jpg",
    "92eda12c66357908aaa5751a0889a2f3.jpg",
    "93b317b044faa8f901032832b0612576.jpg",
    "93da565dd80227ef529cebb6e6c0c4d1.jpg",
    "944259a475d8d156baa276e4993848d4.jpg",
    "953f4b01aa467adfeb7cc15245046e5d.jpg",
    "9556c9000fbea06e99d7683aad405f47.jpg",
    "95fee9e818d81dfa5a57b82cab1fa18a.jpg",
    "968130a01656ae4410b5fae6ab3c90da.jpg",
    "96cc7ce6ac7c610c48838038ac80ad9a.jpg",
    "985394335205a142403f73952dd211d4.jpg",
    "986209da1b4e6ee284a9b2462e7ee143.jpg",
    "9958a0ab1ab8d770538eda047aff3be2.jpg",
    "9986cb7aead055fa5611148a4a789841.jpg",
    "99a3dcfe694f3f56b075db963f3a8f4c.jpg",
    "99c32ec62c77c4ea9ff6e219ed6c8636.jpg",
    "99c58cb9cc4b270137bf38b805eb56a4.jpg",
    "99dd169f5e8807c0edd65e5920f5837e.jpg",
    "9a131390db63bcab96fe5edc24d5590b.jpg",
    "9a136a6b91066fed693d46657cc40ef3.jpg",
    "9a78db642452d58a823560d7e4ed6474.jpg",
    "9a9c1288d27ab2153aae24a3abb70094.jpg",
    "9b351af758528e42b392dddd2ff907de.jpg",
    "9b54688537a89aeb487b4a81b81bf080.jpg",
    "9c2f8d1103c9b11605002fc147d18404.jpg",
    "9dfd7f60cc80fe3204bb617c5202069c.jpg",
    "9e0a7d2e58cf9136fa0f595703830cbe.jpg",
    "9e4ded6613f3659b7feb4f76f507b37f.jpg",
    "9ec21d564b58f7771d3610a8048088a7.jpg",
    "9ecd53876704ad83c132ca8e8bc06c7d.jpg",
    "9f6a04fb7f99a4384ed49ec6514704bb.jpg",
    "9f88e26cb3a9ba53b1dbc28a8d2cc90e.jpg",
    "a02aa3ee7222defc3d249cc6af328ed4.jpg",
    "a20f8d49a9a397819f0ad69d3bb1135d.jpg",
    "a24ce56ac03ca7a5983dae78e1da988d.jpg",
    "a361430eeabf513a42b096006a5fd596.jpg",
    "a3f25f963fe084c35f01f73cc6553b9f.jpg",
    "a3f2e9cdde81ccac3e847884b4701832.jpg",
    "a403b4573830c4a760023ed0dab80d43.jpg",
    "a486f8ee138017be70e9f029fcd2060c.jpg",
    "a582b140346cef20efd9288cb382b3d2.jpg",
    "a63d755039b860374eee6aed099b8cc7.jpg",
    "a67b192c6d99f082c9df3c833865f9dc.jpg",
    "a71472f1ea158edd25349a57c497f991.jpg",
    "a853b47b53a52e25df469d5e1ea2f34b.jpg",
    "a897bf40cb5302880d17a94f438423de.jpg",
    "a91912923b68411d6594311a87d5eabd.jpg",
    "aa5e7b4c6d2a5fdb1c379948929fb94c.jpg",
    "aa7810cdf21babcc4fb87080c65aa323.jpg",
    "aabf9bc1a06f986188b0cee5f021a678.jpg",
    "aaf902ed50f8b13e5b4646ac3ba7a389.jpg",
    "ab9e2be52a2336a04d3793e6061b0789.jpg",
    "abed998303198c4a0bea94e59944d379.jpg",
    "ac21b436e1ebfb44c3871ff92a42f259.jpg",
    "ad4e00c794e3d7f0eaec6efac13d7844.jpg",
    "ad798f6ea061c332e30eca2aca642956.jpg",
    "ade633c96edb5f25567cc338dcb1a9f7.jpg",
    "ae1821fb88df9e17ec9aa333c9e87306.jpg",
    "ae81fa85efbe00353d3d0b58a78fac57.jpg",
    "af0ad0b6c65193c47afcbb7ced33782b.jpg",
    "af1f164bbf1173a07513fc4cbf6a59a6.jpg",
    "afaf7e12dd05f6e17c242387eaa39cb5.jpg",
    "b0c9bdd38f88fbc688261af85914a076.jpg",
    "b0f362423caa6d3069a6acd3e2155583.jpg",
    "b123e60302803fcdc22eccc33b00bef6.jpg",
    "b141fd411f2a7c440b1479e2389168d9.jpg",
    "b14328be217b8c7cd2039c783beeaa3e.jpg",
    "b172b0742abe6b5942e56aa453ee9d74.jpg",
    "b2bbb90cf9ddaa692374235ddf4361d9.jpg",
    "b2dd96fb5a2452007e761e9840419230.jpg",
    "b3af49020d5384d01c028776b146cf7b.jpg",
    "b459cc1793601901a92db9dbf551974b.jpg",
    "b5f31d16d679c828992f204a4635166a.jpg",
    "b6fa23b4a5fe35218e9461f2b1891645.jpg",
    "b7a681930ffbd6335044a9c15a6d30df.jpg",
    "b81c389c6ad3824f6984828054abd428.jpg",
    "b83549d1b31d22363a1d842cb165961c.jpg",
    "b8f4fe56ef59475625c9dad81275172f.jpg",
    "b903d4170aa2bcc8f2a2da462b284042.jpg",
    "b92d6d98dd122e62a5ebba0cb65b0fa7.jpg",
    "b9909fc12d54660f273aecae0d25bd8c.jpg",
    "b9b0d74e37328e5201157ce12cba5544.jpg",
    "ba4538ebcb409d9e101f527f636a86bf.jpg",
    "ba67909995d27d65048285504a185717.jpg",
    "bcaaba44cca41bd4a5ad8f183b10127a.jpg",
    "bcfffcdee9fa19167961f99db90db9c6.jpg",
    "bd257b9ffdd302c11171205066bf3d4c.jpg",
    "bdb8a298ef3f5e07333a0ba49e7fe8e9.jpg",
    "be707b3c2476e2f92561545152900521.jpg",
    "bf8bce4e49caf35aff1023d686f810db.jpg",
    "c066050964ff9a118c73731f0a88de07.jpg",
    "c0afb08c7c0be78819060314e9b4d34d.jpg",
    "c0d36e36a7f7cea31e077231e9b9439c.jpg",
    "c2e7c50db49f1c62c6270d313d54cd86.jpg",
    "c2f9d1b6f282df4cce732f6f20124bef.jpg",
    "c33bbc22458795053f48eff5a2c494ff.jpg",
    "c37b2f435cad9b06c02f1ce9db0f3e59.jpg",
    "c37f3885d03411a6502fcf27a9866f38.jpg",
    "c4afc44819bfe424e785b4de952bba43.jpg",
    "c55cdc597b5b206287ec53ca7205d7ec.jpg",
    "c579c8324846d0d601a4cbd788851cd0.jpg",
    "c5f9e90473e5d65171cd67f77e940bc2.jpg",
    "c66903b604369c6975d9efcf43d663a2.jpg",
    "c8393ef425659024e7b965e6f96e390a.jpg",
    "c8bd080c63d55d22ea2d9dd76ce41157.jpg",
    "c967fc512a76c89bfd415e5000717979.jpg",
    "ca49f9ca890576c891f78750d0346230.jpg",
    "cb3190f3320a2d8aff8a79821aa815c4.jpg",
    "cba967ebe06c35e344136a4ddee167f4.jpg",
    "cc60ba72e0460d808fa9ecbb6eb60664.jpg",
    "cc9b8c18917d3db13ceb0e8061899e57.jpg",
    "cc9c57e1da2157ac258b782eb0f797ce.jpg",
    "ccdb03933f4b746792cc63edc13d204e.jpg",
    "cd03c8d6a0d9c144567f112def8d7626.jpg",
    "cd8baa797b035d1a87930bcacc44c835.jpg",
    "cf4c4d1bfd1d2b7d6873fd40b4566859.jpg",
    "d064b1aede49422f5b26df7bc9b100a3.jpg",
    "d1a63392c619091c077c0f4964933109.jpg",
    "d1b702aba6a6844733090477b444cfc3.jpg",
    "d22b5435b9b8c8cd90fd05f73d087590.jpg",
    "d2bfd842bf0708b29c1d2c561e05db27.jpg",
    "d32c7774529058ff338c52b4290f2fcb.jpg",
    "d42ae7f57f9607395a225f807e1fa1e4.jpg",
    "d480d02982c32cb2c1dfc52df5524fd5.jpg",
    "d4853743e7d08d5407ac43928e7cd42c.jpg",
    "d4f7950502930d50712c35a76a58fd9b.jpg",
    "d522e27bfef57b962c8eff9048f914e9.jpg",
    "d5a2dde1719831885835a66340b6111a.jpg",
    "d5c33b06fdf96bd11b53f99f74eedf57.jpg",
    "d5c4ecbb2d981607b95346ff081c3b87.jpg",
    "d5cf5686e5bcc1710582078804d20c01.jpg",
    "d6f2f50af39c2f9d7676065eff75bb74.jpg",
    "d73eec3b74178c9152500e17b9ab6b3b.jpg",
    "d7b8410b8da0fcd35556c8eb4823dd47.jpg",
    "d7bce3029b3fb3167e15c26eb1cb1d67.jpg",
    "d7fa3496e43b7f906ee1a88f88f7f876.jpg",
    "d84eb8fd56ef312153a1b9f6683eca11.jpg",
    "d874f9748a81d319d36fa890f5b09175.jpg",
    "d8a5ff85dc916f41eb03993aede2c714.jpg",
    "d9100ed231908e7ab882d4e7b0789b85.jpg",
    "d9326ad57926ae802bd37a28b1a8c46b.jpg",
    "da07f8b7cef26c875e5c7a9f6e0a209b.jpg",
    "dac04660bc9cc820fc295d943e44527c.jpg",
    "dc4258c69a783679b8f5f0d6f637e6dd.jpg",
    "dc544f4a2ca2ad57a1ce06ef971c0004.jpg",
    "dc6c7aa2e60f76d811fe3608cf2e6ea3.jpg",
    "dc71ed8fe496a979c46c82603bed2fd9.jpg",
    "dd149be611bbd69016cc6518174fe7b4.jpg",
    "dd36b09c6b2cd16b5f8ecff86539643e.jpg",
    "dd3e13347791292d7ed5d1dd6a0aa23f.jpg",
    "de3e4217897a5dd716bd71e7dba3233b.jpg",
    "df06901c1ddc9737e63aedd99edfd60a.jpg",
    "dfbb6b9ada09017f3d8cac1b08df474d.jpg",
    "e056012864851e13688a8b03d22fb22b.jpg",
    "e0829252838480b63e63fe29f995c390.jpg",
    "e11329313d2bf7fd48cbebfc911e278a.jpg",
    "e1739ae9eae20a44a9feb0e3680d5b5d.jpg",
    "e195cbe76ff180b1a4b0b31b61025794.jpg",
    "e1bac1b2a7c020ddc9d3d0c50b07e27e.jpg",
    "e1cfe3d4797c2a1969483adda2ffe635.jpg",
    "e1ddb54585ff07fa9f1bd415806e8ee8.jpg",
    "e21b7b5900a0e40bf8874e3b77a2bd61.jpg",
    "e228b88eb06fad415946f34be807013e.jpg",
    "e2a4ef230311efe95e3c1bb59f21bab4.jpg",
    "e2c96cb025969c4d0d2a7b4e2f929c7e.jpg",
    "e3223e0a498a88d5356e86f59d7c832d.jpg",
    "e348d2be5ae260c8b88cb3e4ecf676a5.jpg",
    "e3b4cfca8770db22e50d048b2703b586.jpg",
    "e4e142ea5afaf37082eaf65b6a1779db.jpg",
    "e586a62db807506a8c6c005a40ff57f7.jpg",
    "e6b1ad7f33385a4b4b1be35a36479367.jpg",
    "e734bef6d9ed55ff7a6659de3c5c52c7.jpg",
    "e7e4e4f83c9f654b8416c0af43505f45.jpg",
    "e81fddf98c7bce8e9ed4cc34b849b984.jpg",
    "e9ca6e5f7cf85f51c1f81a011e7db424.jpg",
    "e9ffe3b6a190fc95ff64c868c0068821.jpg",
    "eb9ba8c0893b0a0f4031b1a06a345fca.jpg",
    "ec9dcf8b54bbab6c058089d6390ceec1.jpg",
    "eca86b2e0c933f19cbba928e229412cc.jpg",
    "ecfe13bf5edae6b1e2d7617e94b683a3.jpg",
    "ee77be81000d4fdb35f2683cae98bff4.jpg",
    "ee840a16457f325aa9121cbf59166481.jpg",
    "ee92cd2106856faacdaf8b0ffff5f99c.jpg",
    "ee98d7104bffc29ad98fc1f5ea5ef063.jpg",
    "f03fc5c6b7e02dd316ea59dfaa1ed409.jpg",
    "f05181b0d3b9081141465eaa6dcf0a75.jpg",
    "f091c21bf27caac0f3399fbf346d5221.jpg",
    "f1971decfb3b07fea1a62490b3aca52a.jpg",
    "f1e0d0d514f96755ee3907cebecf7ed2.jpg",
    "f2326c05c2724a1468603f404c11b25d.jpg",
    "f25e7c65c96bcc9c4c033b88d5d04334.jpg",
    "f2d173286edf6686f1117c563e557344.jpg",
    "f3066fc63370918e983343458a9cfe1c.jpg",
    "f47882abecc9fc4bf48e4709a73c5a09.jpg",
    "f4b3c1b51c6de21aa11d1890a8c1a556.jpg",
    "f540f5547ee2e741360297e5df8ef06a.jpg",
    "f5f0cc984d90b72c6e77ac0b6e22a2bc.jpg",
    "f731410b0e25b9c9b4de49dfaceb021e.jpg",
    "f7b758755493dfee0b961addcb0641e9.jpg",
    "f7f8adbb0fbd36215accac4d309d2ec0.jpg",
    "fa000bd9c0237e8315562c319a9df035.jpg",
    "fabda45c9db16cfee9a23acdeea8ebd1.jpg",
    "fb2ef40ce92cdc0680622a59436861a6.jpg",
    "fbeb54c700f43765d22e5c36115cb269.jpg",
    "fcc495eda60d92bc4b7785a0021b3423.jpg",
    "fd2874a4e19abef1454b8d334216aec5.jpg",
    "fd4b51d62a7189f5a63611ec789fd1ef.jpg",
    "fdc63b8ea5255021ec185a308c1b6c33.jpg",
    "fe0c889c777a972088217835b5c6daa4.jpg",
    "fef63722ab738fea92b324b9d76d31da.jpg",
    "ff838ceef88423fc93b1ff8df242ff28.jpg"
]
